/* XPM */
static char * focused_xpm[] = {
"1 25 23 1",
" 	c None",
".	c #4E4E4E",
"+	c #5A693A",
"@	c #A0C654",
"#	c #9FC553",
"$	c #9EC452",
"%	c #9EC451",
"&	c #9DC350",
"*	c #9CC250",
"=	c #9CC24F",
"-	c #9BC14E",
";	c #9AC04D",
">	c #97BD49",
",	c #96BC49",
"'	c #95BB48",
")	c #94BA48",
"!	c #94B947",
"~	c #93B847",
"{	c #92B746",
"]	c #91B646",
"^	c #90B546",
"/	c #90B445",
"(	c #393939",
".",
"+",
"@",
"@",
"#",
"$",
"%",
"&",
"*",
"=",
"-",
";",
";",
">",
",",
"'",
")",
"!",
"~",
"{",
"]",
"^",
"/",
"+",
"("};
